<?xml version="1.0" encoding="UTF-8"?>
<svg id="Layer_1" data-name="Layer 1" xmlns="http://www.w3.org/2000/svg" xmlns:xlink="http://www.w3.org/1999/xlink" viewBox="0 0 191 187">
  <defs>
    <style>
      .cls-1 {
        fill: #1c4487;
      }

      .cls-2 {
        fill: #72c2b4;
      }

      .cls-3 {
        fill: #d44628;
      }

      .cls-4 {
        fill: #08547a;
      }

      .cls-5 {
        fill: #8dced5;
      }

      .cls-6 {
        fill: #4f2f87;
      }

      .cls-7 {
        fill: #f4f4f4;
      }

      .cls-8 {
        fill: #fff;
      }

      .cls-9 {
        fill: #3d768b;
      }

      .cls-10 {
        fill: #2a3276;
      }

      .cls-11 {
        fill: #00607e;
      }

      .cls-12 {
        fill: #4aa945;
      }

      .cls-13 {
        fill: #b8dcd4;
      }

      .cls-14 {
        fill: #95c4de;
      }

      .cls-15 {
        fill: #0771b7;
      }

      .cls-16 {
        fill: #004685;
      }

      .cls-17 {
        fill: #bad9ed;
      }

      .cls-18 {
        fill: #8ec6e8;
      }

      .cls-19 {
        fill: #e22b4b;
      }

      .cls-20 {
        fill: #e95427;
      }

      .cls-21 {
        fill: #146080;
      }

      .cls-22 {
        fill: #1d9cd8;
      }

      .cls-23 {
        fill: #c3569a;
      }

      .cls-24 {
        fill: #b1378b;
      }

      .cls-25 {
        fill: #90b423;
      }

      .cls-26 {
        fill: #155384;
      }

      .cls-27 {
        fill: #186a9a;
      }

      .cls-28 {
        fill: #597bb7;
      }

      .cls-29 {
        fill: #6b3e90;
      }

      .cls-30 {
        fill: #166495;
      }

      .cls-31 {
        fill: #1a77aa;
      }

      .cls-32 {
        fill: #36b1a4;
      }

      .cls-33 {
        fill: #e22b4c;
      }

      .cls-34 {
        fill: #76b31f;
      }

      .cls-35 {
        fill: #248da9;
      }

      .cls-36 {
        fill: #83bddb;
      }

      .cls-37 {
        fill: #00b3bd;
      }

      .cls-38 {
        fill: #f5a761;
      }

      .cls-39 {
        fill: #343389;
      }

      .cls-40 {
        fill: #f05324;
      }

      .cls-41 {
        fill: #346d48;
      }

      .cls-42 {
        fill: #1066af;
      }

      .cls-43 {
        fill: #28a997;
      }

      .cls-44 {
        fill: #8b79a4;
      }

      .cls-45 {
        fill: #1b3f80;
      }

      .cls-46 {
        fill: #f8b332;
      }

      .cls-47 {
        fill: #2cb3a8;
      }

      .cls-48 {
        fill: #1d7ebc;
      }

      .cls-49 {
        fill: #e94c80;
      }

      .cls-50 {
        fill: #cbd31a;
      }

      .cls-51 {
        fill: #d37bb0;
      }

      .cls-52 {
        fill: #e8417b;
      }

      .cls-53 {
        fill: #ab2885;
      }

      .cls-54 {
        fill: #4e3b8e;
      }

      .cls-55 {
        fill: #ea80a4;
      }

      .cls-56 {
        fill: #72b52b;
      }

      .cls-57 {
        fill: #7dc7c8;
      }

      .cls-58 {
        fill: #4e5f98;
      }

      .cls-59 {
        fill: #59337c;
      }

      .cls-60 {
        fill: #a7cddf;
      }

      .cls-61 {
        fill: #eaeaea;
      }

      .cls-62 {
        fill: #2fa5de;
      }

      .cls-63 {
        fill: #342d86;
      }

      .cls-64 {
        fill: #e5286f;
      }

      .cls-65 {
        fill: #424242;
      }

      .cls-66 {
        fill: #dfebf4;
      }

      .cls-67 {
        fill: #30b9d0;
      }

      .cls-68 {
        fill: #1c80b5;
      }

      .cls-69 {
        fill: #cad420;
      }

      .cls-70 {
        fill: #1c6c99;
      }

      .cls-71 {
        fill: #bed5e7;
      }

      .cls-72 {
        fill: #da2c87;
      }

      .cls-73 {
        fill: #ef8122;
      }

      .cls-74 {
        fill: #222d58;
      }

      .cls-75 {
        fill: #6398ad;
      }

      .cls-76 {
        fill: #1f867d;
      }

      .cls-77 {
        clip-path: url(#clippath);
      }

      .cls-78 {
        fill: #44ac4a;
      }

      .cls-79 {
        fill: #2399b3;
      }

      .cls-80 {
        fill: #28afac;
      }

      .cls-81 {
        fill: #6bc5d6;
      }

      .cls-82 {
        fill: none;
      }

      .cls-83 {
        fill: #522776;
      }

      .cls-84 {
        fill: #4d4d9b;
      }

      .cls-85 {
        fill: #1e75ba;
      }

      .cls-86 {
        fill: #a0257f;
      }

      .cls-87 {
        fill: #1e7b90;
      }

      .cls-88 {
        fill: #7fbb4f;
      }

      .cls-89 {
        fill: #e15929;
      }

      .cls-90 {
        fill: #24573c;
      }

      .cls-91 {
        fill: #ad2c86;
      }

      .cls-92 {
        fill: #e2adcf;
      }

      .cls-93 {
        fill: #28abc8;
      }

      .cls-94 {
        fill: #ec6c23;
      }

      .cls-95 {
        fill: #c24c95;
      }

      .cls-96 {
        fill: #195539;
      }

      .cls-97 {
        fill: #f29870;
      }

      .cls-98 {
        fill: #7c4c98;
      }

      .cls-99 {
        fill: #81358a;
      }

      .cls-100 {
        fill: #49babb;
      }

      .cls-101 {
        fill: #e01582;
      }

      .cls-102 {
        fill: #29327a;
      }

      .cls-103 {
        fill: #22519f;
      }

      .cls-104 {
        fill: #7f5aa1;
      }

      .cls-105 {
        fill: #f39f89;
      }

      .cls-106 {
        fill: #1476b7;
      }

      .cls-107 {
        fill: #223870;
      }

      .cls-108 {
        fill: #d51c5f;
      }

      .cls-109 {
        fill: #b0c1e0;
      }

      .cls-110 {
        fill: #0572b6;
      }

      .cls-111 {
        fill: #b6d27c;
      }

      .cls-112 {
        fill: #006bb1;
      }

      .cls-113 {
        fill: #ec80a8;
      }

      .cls-114 {
        fill: #3c2871;
      }

      .cls-115 {
        fill: #75c1b0;
      }

      .cls-116 {
        fill: #187145;
      }

      .cls-117 {
        fill: #27a568;
      }
    </style>
    <clipPath id="clippath">
      <path class="cls-82" d="M109.24,35.94c-6.47-6.46-12.64-12.63-14.47-19.57-1.84,6.95-8.01,13.11-14.47,19.57-9.7,9.69-20.69,20.68-20.69,37.15,0,19.4,15.78,35.17,35.17,35.17s35.17-15.78,35.17-35.17c0-16.47-11-27.46-20.7-37.15Zm-31.55,40.37c-1.08,1.42-2.24,3.09-2.76,4.36-.11,.26-.33,.44-.59,.51-.02,0-.05,.01-.07,.02h0s0,0,0,0c-.12,.02-.22,0-.22,0h0c-.79-.07-1.72-1.54-1.72-1.54h0c-.23-.36-.45-.74-.66-1.14-.06-.11-.11-.21-.16-.32-1.98-4.69-.27-11.31-.27-11.31l-.03,.02c.77-3.01,2.14-5.97,4.19-9.04,1.14-1.7,2.43-3.36,3.82-4.98l1.69,1.6,7.88,8.05c.32,.33,.32,.85,.02,1.19l-8.22,9.13h0s-2.87,3.45-2.87,3.45Zm17.48,23.04c-5.34,0-9.87-3.47-11.46-8.28-1.41-3.9-.62-8.33,2.45-11.98,2.57-3.06,5.7-6.06,9.11-9.98,4.04,4.32,6.61,7.27,9.26,10.51,.2,.25,.38,.51,.54,.79,1.36,1.95,2.16,4.33,2.16,6.88,0,6.66-5.4,12.06-12.06,12.06Zm22.87-19.35s0,.03,0,.04c-.1,.27-.4,.86-1.12,.97-.01,0-.02,0-.03,0-.03,0-.05,0-.08,0-.04,0-.07,0-.11,0,0,0,0,0,0,0-.69-.13-1.14-.92-1.14-.92h0c-2.1-3.27-5.77-7.6-7.13-8.87l-3.23-3.41-10.7-11.1c-1.8-1.74-5.06-4.88-6.4-6.57-.06-.09-.1-.17-.17-.26-.4-.56-.67-1.13-.85-1.68,0-.1-.02-.21-.04-.32-.19-1.31,.05-2.39,.42-3.22,.29-.65,.71-1.23,1.21-1.73,2.07-2.07,4.15-4.17,6.11-6.34,2.17,2.4,4.49,4.71,6.78,7l.02,.02c4.54,4.54,9.24,9.23,12.59,14.32,3.36,5.1,4.92,9.91,4.92,15.15,0,2.4-.38,4.72-1.03,6.91Z"/>
    </clipPath>
  </defs>
  <g>
    <polygon class="cls-7" points="172.02 138.19 172.02 48.81 95.81 4.13 19.6 48.81 19.6 138.19 95.81 182.87 172.02 138.19"/>
    <path class="cls-61" d="M95.92,4.19c.04,13.2,.31,26.4,.36,39.59,.19,46.25,.21,92.5,.13,138.74l75.61-44.33V48.81L95.92,4.19Z"/>
  </g>
  <g class="cls-77">
    <g>
      <polygon class="cls-76" points="48.31 16.72 48.31 30.75 60.51 23.72 48.31 16.72"/>
      <polygon class="cls-57" points="48.31 30.75 48.31 16.72 36.1 23.75 48.31 30.75"/>
      <polygon class="cls-117" points="48.31 30.76 48.31 44.79 60.51 37.76 48.31 30.76"/>
      <polygon class="cls-88" points="48.31 44.79 48.31 30.76 36.1 37.79 48.31 44.79"/>
      <polygon class="cls-56" points="48.31 44.79 48.31 58.82 60.51 51.79 48.31 44.79"/>
      <polygon class="cls-111" points="48.31 58.82 48.31 44.79 36.1 51.82 48.31 58.82"/>
      <polygon class="cls-67" points="48.31 58.82 48.31 72.86 60.51 65.83 48.31 58.82"/>
      <polygon class="cls-78" points="48.31 72.86 48.31 58.82 36.1 65.86 48.31 72.86"/>
      <polygon class="cls-28" points="48.31 72.86 48.31 86.89 60.51 79.86 48.31 72.86"/>
      <polygon class="cls-41" points="48.31 86.89 48.31 72.86 36.1 79.89 48.31 86.89"/>
      <polygon class="cls-22" points="48.31 86.89 48.31 100.93 60.51 93.89 48.31 86.89"/>
      <polygon class="cls-107" points="48.31 100.88 48.31 86.89 36.1 93.9 48.31 100.88"/>
      <polygon class="cls-85" points="48.31 100.93 48.31 114.96 60.51 107.93 48.31 100.93"/>
      <polygon class="cls-35" points="48.31 114.96 48.31 100.93 36.1 107.96 48.31 114.96"/>
      <polygon class="cls-103" points="72.73 2.66 72.73 16.69 84.93 9.66 72.73 2.66"/>
      <polygon class="cls-21" points="72.73 16.69 72.73 2.66 60.52 9.69 72.73 16.69"/>
      <polygon class="cls-103" points="72.73 16.69 72.73 30.73 84.93 23.69 72.73 16.69"/>
      <polygon class="cls-81" points="72.73 30.73 72.73 16.69 60.52 23.72 72.73 30.73"/>
      <polygon class="cls-1" points="72.73 30.73 72.73 44.76 84.93 37.73 72.73 30.73"/>
      <polygon class="cls-35" points="72.73 44.76 72.73 30.73 60.52 37.76 72.73 44.76"/>
      <polygon class="cls-30" points="72.73 44.76 72.73 58.8 84.93 51.76 72.73 44.76"/>
      <polygon class="cls-74" points="72.73 58.8 72.73 44.76 60.52 51.8 72.73 58.8"/>
      <polygon class="cls-27" points="72.73 58.8 72.73 72.83 84.93 65.8 72.73 58.8"/>
      <polygon class="cls-18" points="72.73 72.83 72.73 58.8 60.52 65.83 72.73 72.83"/>
      <polygon class="cls-28" points="72.73 72.83 72.73 86.87 84.93 79.83 72.73 72.83"/>
      <polygon class="cls-102" points="72.81 87.56 72.81 73.53 60.61 80.56 72.81 87.56"/>
      <polygon class="cls-28" points="72.73 86.86 72.73 100.9 84.93 93.87 72.73 86.86"/>
      <polygon class="cls-103" points="72.73 100.9 72.73 86.86 60.52 93.9 72.73 100.9"/>
      <polygon class="cls-80" points="72.73 100.9 72.73 114.93 84.93 107.9 72.73 100.9"/>
      <polygon class="cls-1" points="72.73 114.93 72.73 100.9 60.52 107.93 72.73 114.93"/>
      <polygon class="cls-100" points="72.73 114.93 72.73 128.97 84.93 121.94 72.73 114.93"/>
      <polygon class="cls-36" points="72.73 128.97 72.73 114.93 60.52 121.97 72.73 128.97"/>
      <polygon class="cls-47" points="23.92 30.78 23.92 44.82 36.13 37.78 23.92 30.78"/>
      <polygon class="cls-57" points="23.92 44.82 23.92 58.85 36.13 51.82 23.92 44.82"/>
      <polygon class="cls-42" points="23.92 58.85 23.92 72.88 36.13 65.85 23.92 58.85"/>
      <polygon class="cls-25" points="23.92 72.88 23.92 86.92 36.13 79.89 23.92 72.88"/>
      <polygon class="cls-37" points="23.92 86.92 23.92 100.95 36.13 93.92 23.92 86.92"/>
      <polygon class="cls-72" points="145.92 44.71 145.92 30.67 133.71 37.7 145.92 44.71"/>
      <polygon class="cls-108" points="145.92 58.74 145.92 44.71 133.71 51.74 145.92 58.74"/>
      <polygon class="cls-97" points="145.92 72.77 145.92 58.74 133.71 65.77 145.92 72.77"/>
      <polygon class="cls-20" points="145.92 86.81 145.92 72.77 133.71 79.81 145.92 86.81"/>
      <polygon class="cls-3" points="145.92 100.84 145.92 86.81 133.71 93.84 145.92 100.84"/>
      <polygon class="cls-83" points="97.11 2.65 97.11 16.69 109.32 9.66 97.11 2.65"/>
      <polygon class="cls-63" points="97.11 16.69 97.11 2.65 84.91 9.69 97.11 16.69"/>
      <polygon class="cls-63" points="97.11 16.69 97.11 30.72 109.32 23.69 97.11 16.69"/>
      <polygon class="cls-68" points="97.11 30.72 97.11 16.69 84.91 23.72 97.11 30.72"/>
      <polygon class="cls-28" points="97.11 30.73 97.11 44.76 109.32 37.73 97.11 30.73"/>
      <polygon class="cls-68" points="97.11 44.76 97.11 30.73 84.91 37.76 97.11 44.76"/>
      <polygon class="cls-28" points="97.11 44.76 97.11 58.79 109.32 51.76 97.11 44.76"/>
      <polygon class="cls-70" points="97.11 58.79 97.11 44.76 84.91 51.79 97.11 58.79"/>
      <polygon class="cls-62" points="97.11 58.79 97.11 72.83 109.32 65.8 97.11 58.79"/>
      <polygon class="cls-21" points="97.11 72.83 97.11 58.79 84.91 65.83 97.11 72.83"/>
      <polygon class="cls-28" points="97.11 72.83 97.11 86.86 109.32 79.83 97.11 72.83"/>
      <polygon class="cls-17" points="97.11 86.86 97.11 72.83 84.91 79.86 97.11 86.86"/>
      <polygon class="cls-28" points="97.11 86.86 97.11 100.9 109.32 93.86 97.11 86.86"/>
      <polygon class="cls-74" points="97.11 100.9 97.11 86.86 84.91 93.89 97.11 100.9"/>
      <polygon class="cls-15" points="97.11 100.9 97.11 114.93 109.32 107.9 97.11 100.9"/>
      <polygon class="cls-112" points="97.11 114.93 97.11 100.9 84.91 107.93 97.11 114.93"/>
      <polygon class="cls-9" points="97.11 114.93 97.11 128.96 109.32 121.93 97.11 114.93"/>
      <polygon class="cls-4" points="97.11 128.96 97.11 114.93 84.91 121.96 97.11 128.96"/>
      <polygon class="cls-92" points="121.53 16.66 121.53 30.69 133.74 23.66 121.53 16.66"/>
      <polygon class="cls-51" points="121.53 30.69 121.53 16.66 109.33 23.69 121.53 30.69"/>
      <polygon class="cls-3" points="121.53 30.7 121.53 44.73 133.74 37.7 121.53 30.7"/>
      <polygon class="cls-64" points="121.53 44.73 121.53 30.7 109.33 37.73 121.53 44.73"/>
      <polygon class="cls-105" points="121.53 44.73 121.53 58.77 133.74 51.73 121.53 44.73"/>
      <polygon class="cls-91" points="122.38 57.45 122.38 44.66 111.25 51.07 122.38 57.45"/>
      <polygon class="cls-51" points="121.53 58.77 121.53 72.8 133.74 65.77 121.53 58.77"/>
      <polygon class="cls-39" points="121.53 72.8 121.53 58.77 109.33 65.8 121.53 72.8"/>
      <polygon class="cls-59" points="121.53 86.83 121.53 72.8 109.33 79.83 121.53 86.83"/>
      <polygon class="cls-95" points="121.53 86.83 121.53 100.87 133.74 93.84 121.53 86.83"/>
      <polygon class="cls-53" points="121.53 100.87 121.53 86.83 109.33 93.87 121.53 100.87"/>
      <polygon class="cls-23" points="121.53 100.87 121.53 114.9 133.74 107.87 121.53 100.87"/>
      <polygon class="cls-98" points="121.53 114.9 121.53 100.87 109.33 107.9 121.53 114.9"/>
      <polygon class="cls-88" points="60.52 9.69 60.52 23.72 72.72 16.69 60.52 9.69"/>
      <polygon class="cls-78" points="60.52 23.72 60.52 9.69 48.32 16.72 60.52 23.72"/>
      <polygon class="cls-21" points="60.52 23.72 60.52 37.76 72.72 30.72 60.52 23.72"/>
      <polygon class="cls-76" points="60.52 37.76 60.52 23.72 48.32 30.75 60.52 37.76"/>
      <polygon class="cls-28" points="60.52 37.76 60.52 51.79 72.72 44.76 60.52 37.76"/>
      <polygon class="cls-69" points="60.52 51.79 60.52 37.76 48.32 44.79 60.52 51.79"/>
      <polygon class="cls-66" points="60.52 51.79 60.52 65.83 72.72 58.8 60.52 51.79"/>
      <polygon class="cls-35" points="60.52 65.83 60.52 51.79 48.32 58.83 60.52 65.83"/>
      <polygon class="cls-68" points="60.52 65.83 60.52 79.86 72.72 72.83 60.52 65.83"/>
      <polygon class="cls-80" points="60.52 79.86 60.52 65.83 48.32 72.86 60.52 79.86"/>
      <polygon class="cls-35" points="60.52 93.9 60.52 79.86 48.32 86.89 60.52 93.9"/>
      <polygon class="cls-28" points="60.52 93.9 60.52 107.93 72.72 100.9 60.52 93.9"/>
      <polygon class="cls-74" points="60.52 107.93 60.52 93.9 48.32 100.93 60.52 107.93"/>
      <polygon class="cls-60" points="60.52 107.93 60.52 121.96 72.72 114.93 60.52 107.93"/>
      <polygon class="cls-14" points="60.52 121.96 60.52 107.93 48.32 114.96 60.52 121.96"/>
      <polygon class="cls-107" points="84.94 9.66 84.94 23.69 97.14 16.66 84.94 9.66"/>
      <polygon class="cls-74" points="84.94 23.69 84.94 9.66 72.73 16.69 84.94 23.69"/>
      <polygon class="cls-102" points="84.94 23.69 84.94 37.73 97.14 30.7 84.94 23.69"/>
      <polygon class="cls-45" points="84.94 37.73 84.94 23.69 72.73 30.73 84.94 37.73"/>
      <polygon class="cls-48" points="84.94 37.73 84.94 51.77 97.14 44.73 84.94 37.73"/>
      <polygon class="cls-22" points="84.94 51.77 84.94 37.73 72.73 44.76 84.94 51.77"/>
      <polygon class="cls-75" points="84.94 51.77 84.94 65.8 97.14 58.77 84.94 51.77"/>
      <polygon class="cls-71" points="84.94 65.8 84.94 51.77 72.73 58.8 84.94 65.8"/>
      <polygon class="cls-103" points="84.94 65.8 84.94 79.83 97.14 72.8 84.94 65.8"/>
      <polygon class="cls-31" points="84.94 79.83 84.94 65.8 72.73 72.83 84.94 79.83"/>
      <polygon class="cls-110" points="84.94 79.83 84.94 93.87 97.14 86.84 84.94 79.83"/>
      <polygon class="cls-10" points="84.94 93.87 84.94 79.83 72.73 86.87 84.94 93.87"/>
      <polygon class="cls-9" points="84.94 93.87 84.94 107.9 97.14 100.87 84.94 93.87"/>
      <polygon class="cls-107" points="84.94 107.9 84.94 121.94 97.14 114.9 84.94 107.9"/>
      <polygon class="cls-93" points="84.94 121.94 84.94 107.9 72.73 114.93 84.94 121.94"/>
      <polygon class="cls-109" points="84.94 121.94 84.94 135.97 97.14 128.94 84.94 121.94"/>
      <polygon class="cls-15" points="84.94 135.97 84.94 121.94 72.73 128.97 84.94 135.97"/>
      <polygon class="cls-13" points="36.14 23.75 36.14 37.78 48.34 30.75 36.14 23.75"/>
      <polygon class="cls-2" points="36.14 37.78 36.14 23.75 23.93 30.78 36.14 37.78"/>
      <polygon class="cls-5" points="36.14 37.78 36.14 51.82 48.34 44.79 36.14 37.78"/>
      <polygon class="cls-43" points="36.14 51.82 36.14 37.78 23.93 44.82 36.14 51.82"/>
      <polygon class="cls-88" points="36.14 51.82 36.14 65.85 48.34 58.82 36.14 51.82"/>
      <polygon class="cls-67" points="36.14 65.85 36.14 51.82 23.93 58.85 36.14 65.85"/>
      <polygon class="cls-117" points="36.14 65.85 36.14 79.89 48.34 72.86 36.14 65.85"/>
      <polygon class="cls-76" points="36.14 79.89 36.14 65.85 23.93 72.89 36.14 79.89"/>
      <polygon class="cls-21" points="36.14 79.89 36.14 93.92 48.34 86.89 36.14 79.89"/>
      <polygon class="cls-116" points="36.14 93.92 36.14 79.89 23.93 86.92 36.14 93.92"/>
      <polygon class="cls-76" points="36.14 93.92 36.14 107.96 48.34 100.92 36.14 93.92"/>
      <polygon class="cls-90" points="36.14 107.96 36.14 93.92 23.93 100.95 36.14 107.96"/>
      <polygon class="cls-24" points="109.33 9.66 109.33 23.69 121.53 16.66 109.33 9.66"/>
      <polygon class="cls-86" points="109.33 23.69 109.33 9.66 97.12 16.69 109.33 23.69"/>
      <polygon class="cls-113" points="109.33 23.69 109.33 37.73 121.53 30.69 109.33 23.69"/>
      <polygon class="cls-54" points="109.33 37.73 109.33 23.69 97.12 30.72 109.33 37.73"/>
      <polygon class="cls-86" points="109.33 37.73 109.33 51.76 121.53 44.73 109.33 37.73"/>
      <polygon class="cls-112" points="109.33 51.76 109.33 37.73 97.12 44.76 109.33 51.76"/>
      <polygon class="cls-99" points="109.33 51.76 109.33 65.8 121.53 58.76 109.33 51.76"/>
      <polygon class="cls-114" points="109.33 65.8 109.33 51.76 97.12 58.79 109.33 65.8"/>
      <polygon class="cls-44" points="109.33 65.8 109.33 79.83 121.53 72.8 109.33 65.8"/>
      <polygon class="cls-31" points="109.33 79.83 109.33 65.8 97.12 72.83 109.33 79.83"/>
      <polygon class="cls-29" points="109.33 79.83 109.33 93.87 121.53 86.83 109.33 79.83"/>
      <polygon class="cls-6" points="109.33 93.87 109.33 79.83 97.12 86.86 109.33 93.87"/>
      <polygon class="cls-42" points="109.33 93.86 109.33 107.9 121.53 100.87 109.33 93.86"/>
      <polygon class="cls-104" points="109.33 107.9 109.33 93.86 97.12 100.9 109.33 107.9"/>
      <polygon class="cls-84" points="109.33 107.9 109.33 121.93 121.53 114.9 109.33 107.9"/>
      <polygon class="cls-58" points="109.33 121.93 109.33 107.9 97.12 114.93 109.33 121.93"/>
      <polygon class="cls-101" points="133.75 23.66 133.75 37.7 145.95 30.67 133.75 23.66"/>
      <polygon class="cls-108" points="133.75 37.7 133.75 23.66 121.54 30.7 133.75 37.7"/>
      <polygon class="cls-52" points="133.75 37.7 133.75 51.73 145.95 44.7 133.75 37.7"/>
      <polygon class="cls-94" points="133.75 51.73 133.75 37.7 121.54 44.73 133.75 51.73"/>
      <polygon class="cls-38" points="133.75 51.73 133.75 65.77 145.95 58.74 133.75 51.73"/>
      <polygon class="cls-46" points="133.75 65.77 133.75 51.73 121.54 58.77 133.75 65.77"/>
      <polygon class="cls-38" points="133.75 65.77 133.75 79.8 145.95 72.77 133.75 65.77"/>
      <polygon class="cls-73" points="133.75 79.8 133.75 93.84 145.95 86.81 133.75 79.8"/>
      <polygon class="cls-113" points="133.75 93.84 133.75 79.8 121.54 86.84 133.75 93.84"/>
      <polygon class="cls-89" points="133.75 93.84 133.75 107.87 145.95 100.84 133.75 93.84"/>
      <polygon class="cls-19" points="133.75 107.87 133.75 93.84 121.54 100.87 133.75 107.87"/>
      <polygon class="cls-82" points="145.9 100.81 145.93 30.78 84.95 -4.24 23.97 30.81 23.94 100.94 84.93 135.95 145.9 100.81"/>
    </g>
  </g>
  <polygon class="cls-49" points="122.33 73.12 122.33 85.84 133.39 79.47 122.33 73.12"/>
  <polygon class="cls-26" points="83.7 110.51 83.7 96.47 71.5 103.51 83.7 110.51"/>
  <polygon class="cls-55" points="136.76 55.71 131.07 50.02 128.98 57.82 136.76 55.71"/>
  <polygon class="cls-50" points="143.82 67.46 144.76 53.88 132.47 59.87 143.82 67.46"/>
  <polygon class="cls-34" points="131.91 43.06 136.49 47.26 137.85 41.17 131.91 43.06"/>
  <polygon class="cls-55" points="135.43 78.91 131.41 69.95 125.64 77.93 135.43 78.91"/>
  <polygon class="cls-91" points="124.34 43.92 127.39 39.46 121.99 39.05 124.34 43.92"/>
  <polygon class="cls-11" points="54.13 68.45 46.98 75.1 56.35 77.99 54.13 68.45"/>
  <polygon class="cls-16" points="50.54 101.65 58.16 103.21 55.7 95.81 50.54 101.65"/>
  <polygon class="cls-32" points="62.85 100.28 72.86 102.33 69.62 92.59 62.85 100.28"/>
  <polygon class="cls-12" points="61.32 72.7 52.52 73.83 57.91 80.91 61.32 72.7"/>
  <polygon class="cls-11" points="49.91 90 56.17 91.28 54.15 85.19 49.91 90"/>
  <polygon class="cls-106" points="59.46 61.28 51.1 55.4 50.18 65.62 59.46 61.28"/>
  <polygon class="cls-115" points="64.47 101.41 56.67 96.45 56.27 105.73 64.47 101.41"/>
  <polygon class="cls-93" points="57.56 80.53 57.56 94.35 69.58 87.42 57.56 80.53"/>
  <polygon class="cls-96" points="49.65 98.11 55.15 93.92 48.75 91.23 49.65 98.11"/>
  <polygon class="cls-40" points="52.78 80.34 46.85 78.88 51.09 74.46 52.78 80.34"/>
  <polygon class="cls-79" points="18.98 165.21 25.6 165.21 25.76 173.22 41.54 173.88 41.74 180.62 19.88 180.62 21.92 173.43 18.98 165.21"/>
  <polyline class="cls-87" points="41.73 180.62 41.73 175.36 25.14 175.36"/>
  <polygon class="cls-79" points="172.74 165.2 166.12 165.2 165.96 173.21 150.18 173.86 149.98 180.6 171.84 180.6 169.8 173.41 172.74 165.2"/>
  <polyline class="cls-87" points="149.99 180.62 149.99 175.36 166.58 175.36"/>
  <rect class="cls-93" x="25.15" y="152.03" width="141.33" height="23.33"/>
  <g>
    <path class="cls-8" d="M39.52,161.63h3.39v1.18h-3.39v3.62h3.39l.3-1.48h.96v2.66h-7.45v-.89l1.25-.29v-7.97l-1.25-.29v-.81l2.8-.07h4.5v2.51h-.96l-.37-1.33h-3.17v3.17Z"/>
    <path class="cls-8" d="M47.53,160.76l1.14,1.9,1.77-2.8,2.14-.07v.89l-1.25,.22-1.84,2.73,1.89,2.83,1.36,.34v.81h-3.6v-.81l.59-.18-1.21-1.95-1.83,2.94h-2.14v-.81l1.3-.34,1.87-2.76-1.89-2.82-1.14-.21v-.81l3.36-.07v.89l-.52,.09Z"/>
    <path class="cls-8" d="M57.96,159.64c1.62,0,2.36,1.03,2.36,2.66v4.13l1.11,.37v.81h-3.54v-.81l.96-.35v-4c0-1.17-.5-1.56-1.25-1.56s-1.73,.53-2.21,1.2v4.35l.96,.37v.81h-3.69v-.81l1.25-.37v-9l-1.25-.3v-.81l2.73-.07v4.46c.46-.38,1.49-1.06,2.58-1.06Z"/>
    <path class="cls-8" d="M65.7,166.8v.81h-3.84v-.81l1.25-.37v-5.46l-1.25-.29v-.81l2.73-.07v6.64l1.11,.37Zm-1.92-10.48c.59,0,.96,.3,.96,1.03,0,.66-.52,1.03-.96,1.03-.59,0-.96-.37-.96-1.03s.44-1.03,.96-1.03Z"/>
    <path class="cls-8" d="M70.72,159.64c2.14,0,3.1,1.55,3.1,3.84,0,2.51-1.4,4.28-4.06,4.28-1.62,0-2.73-.37-2.73-.37v-9.96l-1.18-.3v-.81l2.66-.07v4.25c.49-.38,1.25-.86,2.21-.86Zm-.74,6.93c1.71,0,2.29-1.33,2.29-2.95s-.52-2.8-1.84-2.8-1.92,.96-1.92,.96v4.65s.38,.15,1.48,.15Z"/>
    <path class="cls-8" d="M78.31,166.8v.81h-3.84v-.81l1.25-.37v-5.46l-1.25-.29v-.81l2.73-.07v6.64l1.11,.37Zm-1.92-10.48c.59,0,.96,.3,.96,1.03,0,.66-.52,1.03-.96,1.03-.59,0-.96-.37-.96-1.03s.44-1.03,.96-1.03Z"/>
    <path class="cls-8" d="M83.62,159.86v1.11h-2.14v4.74c0,.68,.32,.9,.74,.9,.35,0,.77-.16,1.15-.37l.4,.78c-.66,.49-1.33,.74-2.07,.74-.89,0-1.7-.49-1.7-2.14v-4.65h-1.48v-.96l1.48-.15v-1.86l1.48-.29v2.15h2.14Z"/>
    <path class="cls-8" d="M91.29,163.55c0,2.51-1.48,4.21-3.69,4.21s-3.54-1.33-3.54-3.98c0-2.51,1.55-4.13,3.76-4.13s3.47,1.55,3.47,3.91Zm-5.68,.15c0,1.77,.59,2.88,2.07,2.88s2.07-1.03,2.07-2.95c0-1.62-.52-2.8-1.99-2.8s-2.14,.96-2.14,2.88Z"/>
    <path class="cls-8" d="M96.67,159.64c.74,0,1.33,.22,1.33,.22l-.07,2.14h-.96l-.22-1.11c-1.11,0-1.81,.72-2.14,1.15v4.38l1.48,.37v.81h-4.21v-.81l1.25-.37v-5.46l-1.25-.29v-.81l2.43-.07,.13,1.08c.37-.41,1.22-1.22,2.23-1.22Z"/>
    <path class="cls-8" d="M104.49,166.5c1.08,0,2.26-.53,2.26-1.58,0-2.27-5.33-1.33-5.33-4.85,0-2.07,1.65-2.94,3.5-2.94,1.4,0,3.11,.59,3.11,.59l-.07,2.51h-.96l-.5-1.58s-.75-.27-1.56-.27c-1.33,0-1.96,.69-1.96,1.43,0,2.24,5.31,1.39,5.31,4.71,0,2.21-1.79,3.23-3.85,3.23-1.55,0-3.04-.59-3.04-.59v-2.58h1.18l.3,1.55s.66,.37,1.62,.37Z"/>
    <path class="cls-8" d="M113.89,159.64c2.14,0,3.17,1.55,3.17,3.84,0,2.51-1.25,4.28-3.98,4.28-.49,0-.93-.09-1.33-.21v2.35l1.55,.29v.81h-4.21v-.81l1.18-.29v-8.93l-1.25-.29v-.81l2.51-.07,.12,.83c.44-.41,1.22-.97,2.24-.97Zm-.59,6.93c1.71,0,2.21-1.33,2.21-2.95s-.59-2.8-1.92-2.8-1.84,1.03-1.84,1.03v4.43s.44,.29,1.55,.29Z"/>
    <path class="cls-8" d="M124.95,163.55c0,2.51-1.48,4.21-3.69,4.21s-3.54-1.33-3.54-3.98c0-2.51,1.55-4.13,3.76-4.13s3.47,1.55,3.47,3.91Zm-5.68,.15c0,1.77,.59,2.88,2.07,2.88s2.07-1.03,2.07-2.95c0-1.62-.52-2.8-1.99-2.8s-2.14,.96-2.14,2.88Z"/>
    <path class="cls-8" d="M130.85,159.64c1.62,0,2.36,1.03,2.36,2.66v4.13l1.11,.37v.81h-3.54v-.81l.96-.37v-3.98c0-1.03-.37-1.55-1.33-1.55-1.25,0-2.14,1.18-2.14,1.18v4.35l.96,.37v.81h-3.69v-.81l1.25-.37v-5.46l-1.25-.29v-.81l2.43-.07,.13,1.05c.35-.31,1.52-1.2,2.75-1.2Z"/>
    <path class="cls-8" d="M136.04,166.52s.44,.13,1.24,.13c.89,0,1.67-.25,1.67-1.17,0-1.59-4.12-.86-4.12-3.54,0-1.53,1.18-2.3,2.7-2.3,1.17,0,2.52,.44,2.52,.44l-.04,1.99h-.96l-.24-1.15s-.46-.18-1.19-.18-1.31,.24-1.31,.99c0,1.58,4.12,.97,4.12,3.5,0,1.7-1.48,2.52-3.25,2.52-1.36,0-2.33-.32-2.33-.32v-2.18h1.03l.16,1.27Z"/>
    <path class="cls-8" d="M148.31,163.55c0,2.51-1.48,4.21-3.69,4.21s-3.54-1.33-3.54-3.98c0-2.51,1.55-4.13,3.76-4.13s3.47,1.55,3.47,3.91Zm-5.68,.15c0,1.77,.59,2.88,2.07,2.88s2.07-1.03,2.07-2.95c0-1.62-.52-2.8-1.99-2.8s-2.14,.96-2.14,2.88Z"/>
    <path class="cls-8" d="M153.7,159.64c.74,0,1.33,.22,1.33,.22l-.07,2.14h-.96l-.22-1.11c-1.11,0-1.81,.72-2.14,1.15v4.38l1.48,.37v.81h-4.21v-.81l1.25-.37v-5.46l-1.25-.29v-.81l2.43-.07,.13,1.08c.37-.41,1.22-1.22,2.23-1.22Z"/>
  </g>
  <g>
    <g>
      <rect class="cls-4" x="37.04" y="134.98" width="39.14" height=".94"/>
      <rect class="cls-4" x="82.4" y="134.98" width="71.6" height=".94"/>
      <path class="cls-4" d="M38.54,116.98h-1.54v-2.7h6.9c5.21,0,8.62,3.15,8.62,8.58s-3.41,8.62-8.62,8.62h-3.71c-1.12,0-1.61-.49-1.61-1.65v-12.86h-.04Zm3.64,11.85h1.54c3.37,0,5.55-2.06,5.55-5.96s-2.21-5.89-5.55-5.89h-2.02v11.32c-.04,.34,.19,.52,.49,.52Z"/>
      <path class="cls-4" d="M84.83,118.86c-2.96,0-4.05,1.95-4.05,1.95h-.04v-.49c0-.67-.41-1.2-1.61-1.2h-2.81v2.62h.97c.34,0,.56,.19,.56,.52v13.98h3.15v-5.1c0-.37,0-.71-.04-1.05h.04s1.12,1.61,3.64,1.61c3.34,0,5.85-2.55,5.85-6.45s-2.21-6.41-5.66-6.41Zm-.75,10.31c-2.1,0-3.15-1.87-3.15-3.79,0-2.74,1.54-3.9,3.19-3.9,1.87,0,3.15,1.54,3.15,3.86,.04,2.44-1.46,3.82-3.19,3.82h0Z"/>
      <path class="cls-4" d="M101.59,128.3v-4.57c0-2.74-1.24-4.91-5.47-4.91-1.31,0-4.65,.26-4.65,2.55v1.31h2.92v-.64c0-.67,1.12-.82,1.69-.82,1.61,0,2.36,.64,2.36,2.4v.07h-.41c-2.06,0-7.54,.3-7.54,4.16,0,2.47,2.06,3.82,4.35,3.82,2.89,0,3.82-2.17,3.82-2.17h.04c-.04,.19-.04,.37-.04,.52,0,.71,.45,1.35,1.61,1.35h2.85v-2.59h-.97c-.34,.07-.56-.15-.56-.49Zm-3.11-2.21c0,1.5-1.2,3.22-2.89,3.22-1.31,0-1.91-.79-1.91-1.61,0-1.72,2.62-1.95,4.27-1.95h.56v.34h-.04Z"/>
      <path class="cls-4" d="M107.29,128.3v-12.37c0-1.12-.52-1.65-1.69-1.65h-3.04v2.62h1.01c.34,0,.56,.19,.56,.52v12.37c0,1.16,.49,1.65,1.69,1.65h3v-2.59h-.97c-.37,0-.56-.22-.56-.56Z"/>
      <path class="cls-33" d="M117.79,128.79c-3.22,0-5.74-2.7-5.74-6.07,0-3.56,2.47-5.77,5.66-5.77,1.54,0,3.67,.6,3.67,1.84v.97h2.96v-1.91c0-2.92-4.42-3.82-6.71-3.82-5.14,0-8.96,3.75-8.96,8.7s3.67,9,9.11,9c4.57,0,7.12-2.96,7.12-2.96l-1.72-2.29c-.07,.04-2.06,2.32-5.4,2.32Z"/>
      <path class="cls-33" d="M131.81,118.86c-3.86,0-6.97,2.66-6.97,6.45s3.11,6.45,6.97,6.45,6.97-2.66,6.97-6.45-3.07-6.45-6.97-6.45Zm0,10.27c-2.06,0-3.79-1.54-3.79-3.82s1.72-3.82,3.79-3.82,3.79,1.57,3.79,3.82-1.72,3.82-3.79,3.82h0Z"/>
      <path class="cls-33" d="M152.65,128.86c-.34,0-.56-.19-.56-.52v-4.8c0-3.26-1.61-4.69-4.42-4.69-2.55,0-3.94,1.54-4.5,2.55h-.04c.04-.19,.04-.37,.04-.52v-.37c0-.86-.56-1.39-1.65-1.39h-2.92v2.62h1.01c.34,0,.56,.19,.56,.52v9.18h3.15v-5.66c0-.56,.07-1.09,.26-1.65,.45-1.46,1.72-2.51,3.41-2.51s1.99,1.01,1.99,2.51v5.66c0,1.16,.49,1.65,1.69,1.65h3.04v-2.59h-1.05Z"/>
      <path class="cls-4" d="M75.8,128.86c-.34,0-.56-.19-.56-.52v-9.18h-3.15v5.66c0,2.21-1.27,4.16-3.56,4.16-1.57,0-1.95-1.01-1.95-2.51v-5.74c0-.97-.37-1.46-1.24-1.57h-4.09c-.71,.07-1.95,.37-2.85,1.5-.34,.45-.6,.94-.79,1.5h-.04c.04-.26,.04-.52,.04-.79v-.71c0-1.05-.56-1.5-1.69-1.5h-2.89v.86c.15,.56,.26,1.16,.34,1.72h.67c.34,0,.56,.19,.56,.52v9.18h3.15v-4.87c0-.67,.07-1.35,.26-1.99,.11-.34,.22-.64,.41-.94h0s.97-1.87,3.82-1.91h.67c.34,0,.56,.19,.56,.52v4.8c0,3.34,1.65,4.69,4.39,4.69,2.21,0,3.79-1.27,4.39-2.55h.04s-.04,.26-.04,.56v.34c0,.86,.56,1.39,1.65,1.39h2.92v-2.59l-1.05-.04Z"/>
    </g>
    <g>
      <path class="cls-65" d="M45.15,141.35c0,1.88-1.36,3.02-3.62,3.02h-2.15v2.63h-1.24v-8.68h3.38c2.26,0,3.62,1.14,3.62,3.03Zm-1.24,0c0-1.24-.83-1.95-2.42-1.95h-2.11v3.89h2.11c1.59,0,2.42-.71,2.42-1.95Z"/>
      <path class="cls-65" d="M46.98,138.32h1.24v8.68h-1.24v-8.68Z"/>
      <path class="cls-65" d="M52.55,139.4h-2.98v-1.08h7.18v1.08h-2.98v7.6h-1.23v-7.6Z"/>
      <path class="cls-65" d="M59.95,139.4h-2.98v-1.08h7.18v1.08h-2.98v7.6h-1.23v-7.6Z"/>
      <path class="cls-65" d="M64.6,146.01l.46-.97c.64,.58,1.75,1,2.86,1,1.5,0,2.14-.58,2.14-1.34,0-2.12-5.26-.78-5.26-4,0-1.34,1.04-2.48,3.32-2.48,1.02,0,2.07,.27,2.79,.77l-.41,.99c-.76-.48-1.61-.71-2.38-.71-1.48,0-2.11,.62-2.11,1.38,0,2.12,5.26,.79,5.26,3.98,0,1.33-1.07,2.47-3.36,2.47-1.33,0-2.63-.45-3.32-1.09Z"/>
      <path class="cls-65" d="M80.56,144.66c0,1.49-1.13,2.34-3.32,2.34h-4.14v-8.68h3.89c2,0,3.11,.84,3.11,2.24,0,.94-.48,1.6-1.17,1.93,.98,.27,1.62,1,1.62,2.16Zm-6.22-5.33v2.78h2.54c1.26,0,1.98-.47,1.98-1.39s-.72-1.39-1.98-1.39h-2.54Zm4.97,5.23c0-1-.74-1.45-2.12-1.45h-2.85v2.89h2.85c1.38,0,2.12-.43,2.12-1.44Z"/>
      <path class="cls-65" d="M82.42,143.25v-4.93h1.24v4.88c0,1.92,.88,2.79,2.44,2.79s2.45-.87,2.45-2.79v-4.88h1.2v4.93c0,2.52-1.38,3.84-3.67,3.84s-3.67-1.33-3.67-3.84Z"/>
      <path class="cls-65" d="M98.1,147l-1.87-2.67c-.17,.01-.36,.02-.55,.02h-2.15v2.64h-1.24v-8.68h3.38c2.26,0,3.62,1.14,3.62,3.03,0,1.34-.69,2.31-1.91,2.74l2.06,2.91h-1.35Zm-.04-5.65c0-1.24-.83-1.95-2.42-1.95h-2.11v3.9h2.11c1.59,0,2.42-.72,2.42-1.96Z"/>
      <path class="cls-65" d="M107.33,142.61h1.19v3.38c-.87,.73-2.07,1.1-3.29,1.1-2.67,0-4.62-1.87-4.62-4.44s1.96-4.44,4.65-4.44c1.38,0,2.54,.46,3.33,1.34l-.77,.77c-.72-.69-1.54-1-2.52-1-2.01,0-3.46,1.4-3.46,3.33s1.45,3.33,3.45,3.33c.73,0,1.41-.16,2.03-.56v-2.83Z"/>
      <path class="cls-65" d="M118.36,138.32v8.68h-1.24v-3.87h-4.98v3.87h-1.24v-8.68h1.24v3.73h4.98v-3.73h1.24Z"/>
      <path class="cls-65" d="M129.97,145.36v1.64h-6.56v-1.3l3.35-3.16c.77-.73,.91-1.18,.91-1.6,0-.68-.47-1.08-1.39-1.08-.74,0-1.38,.29-1.8,.87l-1.46-.94c.67-.98,1.88-1.61,3.45-1.61,1.93,0,3.22,.99,3.22,2.57,0,.84-.24,1.61-1.45,2.74l-2,1.88h3.73Z"/>
      <path class="cls-65" d="M130.78,142.66c0-2.86,1.59-4.49,3.72-4.49s3.72,1.62,3.72,4.49-1.57,4.49-3.72,4.49-3.72-1.62-3.72-4.49Zm5.42,0c0-1.97-.69-2.79-1.7-2.79s-1.69,.82-1.69,2.79,.69,2.79,1.69,2.79,1.7-.82,1.7-2.79Z"/>
      <path class="cls-65" d="M145.61,145.36v1.64h-6.56v-1.3l3.35-3.16c.77-.73,.91-1.18,.91-1.6,0-.68-.47-1.08-1.39-1.08-.74,0-1.38,.29-1.8,.87l-1.46-.94c.67-.98,1.88-1.61,3.45-1.61,1.93,0,3.22,.99,3.22,2.57,0,.84-.24,1.61-1.45,2.74l-2,1.88h3.73Z"/>
      <path class="cls-65" d="M152.85,144.35c0,1.46-1.13,2.8-3.6,2.8-1.22,0-2.47-.33-3.31-.93l.78-1.54c.66,.5,1.57,.78,2.48,.78,1,0,1.62-.41,1.62-1.12,0-.66-.48-1.07-1.62-1.07h-.92v-1.33l1.79-2.02h-3.69v-1.61h6.07v1.3l-1.96,2.23c1.56,.25,2.36,1.21,2.36,2.49Z"/>
    </g>
  </g>
</svg>