<svg class="personas-morph" xmlns="http://www.w3.org/2000/svg" viewBox="0 0 300 200">
  <path class="start" d="M188.35,174.31c68.59-22.54,102.41-86.77,64.5-130.16C209.6-5.35,39.49,27,29.29,96.19,19.26,164.26,128.64,193.94,188.35,174.31Z" style="fill: #004482"/>
  <path class="end" d="M179.56,183.67c68.43-9,119.66-68.41,93.47-117.92C243.15,9.27,47.77-8.71,23.81,56.37.24,120.37,90.17,195.48,179.56,183.67Z"/>
</svg>
